COLMIP-1 060728053451.64       55.88SI 0
COMAIPU0 060728053451.82       55.54SI 0
CUATIP-0 060728053453.78       59.18SI 0
ESPNIP 1 060728053451.51       55.20SI 0
JANUIP 1 060728053453.40
MAZEIPU0 060728053450.50       57.37SI 0
MORAIP 0 060728053452.34       56.41SI 0
SCRIIP 1 060728053451.56       55.06SI 0
SNIDIPU0 060728053451.43       58.43SI 0
ZAPOIPD0 060728053452.68       56.75SI 0
