COLMEP 3 060501193821.88
ESPNIPU1 060501193822.70
HIGAIPD0 060501193818.22
MAZEIPU0 060501193821.68
PAVEIP+1 060501193822.41
SANMIP-1 060501193819.42
SCRIEP-2 060501193822.99
ZAPOIPU0 060501193824.02
