ALPIIPD0 060310105303.23
COLMEP-3 060310105307.81
GARCIPU0 060310105305.59
HIGAEP-2 060310105304.35
PAVEIPU0 060310105304.79       07.26SI 0
PERCIPU0 060310105303.25
SANMIPD0 060310105303.87       05.89SI 0
SCRIEP+2 060310105307.57
