ALPIIPU0 060319022123.68
COLMIP+1 060319022119.11
COMAIP 0 060319022119.29
CUATIP-0 060319022119.78
ESPNIPU0 060319022119.87
GARCIP+1 060319022122.89
HIGAIPU1 060319022124.04
JANUEPD2 060319022122.37
MAZEIPU0 060319022121.12
MORAIP+0 060319022120.81
SANMIP+1 060319022123.73
SCRIIPD0 060319022119.54
SINNIPU1 060319022123.14
SNIDIP+1 060319022121.09
ZAPOEPD2 060319022120.57
