ALPIIP-0 060727141048.44
BAVAEPU2 060727141045.57
ESPNIPD0 060727141048.71
HIGAIPU0 060727141046.94
JANUIPU0 060727141052.28
OLOTEPU2 060727141052.14
SCRIIP-1 060727141049.36
SINNEPU2 060727141049.03
ZAPOEP-2 060727141050.96
