ALPIIP 1 060319224200.98
BAVAEP 3 060319224159.32
COMAIP-0 060319224158.32
CUATIPD0 060319224159.41
ESPNIPU0 060319224158.62
GARCIP+0 060319224200.92
HIGAIPD0 060319224201.49
MAZEIPD0 060319224158.97
MORAIP 1 060319224159.84
PAVEIPD0 060319224201.36
PERCIP+0 060319224202.67
SANMIP+0 060319224200.75
SCRIEP+2 060319224158.81
SINNIPD0 060319224200.58
SNIDIPU0 060319224200.31
ZAPOEP-3 060319224201.81
