ALPIIPU0 061228125332.29
BAVAEPD2 061228125329.65       43.64SI 0
COMAEP+2 061228125333.11
ESPNEPU2 061228125334.00
GARCEP-2 061228125235.80
HIGAIPU0 061228125329.79
JANUEPU2 061228125336.01
MAZEIPD0 061228125333.39
SANMIPU0 061228125331.24
SCRIIP+0 061228125334.69
SNIDEPD2 061228125336.06
ZAPOEP+3 061228125335.49
