ALPIIPD0 060922033154.38
BAVAIPU0 060922033151.87
CUATIPU1 060922033153.17
ESPNIPU0 060922033155.95
GARCIPU0 060922033157.78
HIGAIPU0 060922033152.08
MAZEIP+0 060922033155.00
MORAIPU0 060922033156.53
PAVEIP+0 060922033157.06
PERCIPU0 060922033156.14
SCRIIPU0 060922033156.65
SINNEPU2 060922033155.67
SNIDIPU0 060922033158.32
ZAPOEPU2 060922033157.61
