COLMEP+2 060921070952.89
COMAIP-0 060921070952.14
ESPNEP+2 060921070952.99
MORAIPU1 060921070953.93
PAVEIPU0 060921070956.60
SCRIIPU0 060921070953.19
SNIDEP-2 060921070955.28       00.86SI 0
ZAPOEPD2 060921070953.86
