ALPIIPU0 060511083002.09
ESPNEPU2 060511083003.70
HIGAIPU0 060511082959.05
MAZEIPD0 060511083003.19
MORAEP-3 060511083005.81
PAVEIPU0 060511083004.37
SANMIPU0 060511083001.12
ZAPOEPU2 060511083005.44
