ALPIEP-3 060318113324.91
COLMEP 3 060318113322.11
CUATEPU2 060318113323.55       30.41SI 0
ESPNEP-3 060318113322.15
GARCIPD0 060318113324.77
HIGAIPD0 060318113326.29       34.34SI 0
JANUEPD2 060318113325.01
MORAIPD0 060318113322.77
PAVEIPD0 060318113325.42
PERCIPD0 060318113326.13
SANMIPD0 060318113325.38       32.71SI 0
SCRIIPD0 060318113322.02       27.14SI 0
SINNEPU2 060318113324.54       31.42SI 0
SNIDIPD0 060318113323.85
ZAPOIPD0 060318113322.92
