ALPIIP-0 060912074634.15
BAVAIPD0 060912074631.55
COLMIP-0 060912074630.01
COMAIP-1 060912074629.60
CUATIPD0 060912074631.95
ESPNIPD0 060912074630.15
GARCIPU0 060912074633.21
HIGAIP-0 060912074634.81
MAZEIPD0 060912074631.19
MORAIPD0 060912074630.97
PAVEIPD0 060912074633.90
SANMIPD0 060912074633.72       43.30SI 0
SCRIIP-0 060912074630.17
SINNIPD0 060912074633.23
SNIDIPD0 060912074632.16
ZAPOIP-0 060912074631.09
