ALPIIPD0 060524205641.53
COLMEP-2 060524205642.69
CUATIPU1 060524205640.66       52.41SI 0
ESPNIP-1 060524205642.70       56.44SI 0
HIGAIPD0 060524205639.44       49.48SI 0
MAZEEP+3 060524205642.02       55.01SI 0
PAVEIPD0 060524205643.60
SCRIIP+0 060524205643.43
