ALPIIPU0 060826080734.15
ESPNIP+1 060826080729.02
GARCIPU0 060826080731.93
MAZEIPU0 060826080731.57
MORAIPU0 060826080730.69
OLOTEP-3 060826080733.42
PAVEEPU2 060826080732.58
PERCEP-3 060826080732.56
SCRIIPU0 060826080729.77
SINNEPU2 060826080733.04
