ALPIEPD2 060510175112.77
COLMIP+0 060510175110.05
CUATEPU2 060510175111.49
GARCEP 3 060510175109.61
HIGAIPU0 060510175114.34
MAZEIPD0 060510175110.61
MORAIPU0 060510175109.52
PAVEIPU0 060510175110.43
PERCIPU0 060510175112.65
SANMIPU0 060510175113.35
SCRIIPU0 060510175108.70
SNIDIPU0 060510175108.25
ZAPOEP+3 060510175108.49
