JANUEPU2 061222150610.16
ALPIIPU0 061222150608.61
COLMEP-3 061222150606.18
BAVAIPD0 061222150604.74
COMAIPD0 061222150605.97
GARCIP+1 061222150610.82
SINNIPU1 061222150609.41
SANMIPU0 061222150607.50
ESPNEP 3 061222150607.80       25.99SI 0
CUATEPD2 061222150606.24
MAZEIP+0 061222150607.70
