ALPIIPU0 061208051637.86
COLMIPU0 061208051634.29
COMAIP-0 061208051634.59
CUATEP-3 061208051637.64
GARCEP+3 061208051634.68
HIGAIPU0 061208051638.87
MAZEEPD2 061208051636.02
MORAIPD0 061208051633.84
PAVEIP-0 061208051636.79
SANMIPU0 061208051637.87
SCRIIPU0 061208051633.31
SINNIPU0 061208051636.73
SNIDIPU0 061208051634.01
ZAPOIPU0 061208051633.57
