ALPIIP+0 060325115936.68
BAVAIPU0 060325115933.53
COLMIP+0 060325115932.51
COMAIPU0 060325115931.91
CUATIP+0 060325115934.22
ESPNIP-0 060325115932.85
HIGAIPU0 060325115937.03
JANUIP-0 060325115936.53
MAZEIPU0 060325115934.21
MORAEP+2 060325115934.32
PAVEIPD1 060325115936.43
PERCIPD1 060325115937.42
SANMIPU0 060325115936.15
SCRIIPU0 060325115933.23
