ALPIEP 2 060711162634.40       40.76SI 0
ESPNEP-2 060711162637.56       46.31SI 0
HIGAIP+0 060711162632.36       37.23SI 0
JANUIPD0 060711162637.22       46.93SI 0
MAZEIPD1 060711162636.61       44.86SI 0
PAVEIP+0 060711162636.26       44.387SI 0
SANMIPU0 060711162637.00
SCRIIP-1 060711162638.05       47.17SI 0
SINNIP-0 060711162635.98
