BAVAIPU0 061218033858.84
COLMIP-1 061218033855.69
COMAIP+1 061218033857.50
ESPNIPD0 061218033854.62
GARCIPU0 061218033853.35
HIGAIPU0 061218033858.29
MORAIPD1 061218033854.04
PAVEIP-0 061218033853.46
SANMIPD0 061218033857.17
SCRIEP-2 061218033853.08       12.00SI 0
SINNIPD0 061218033855.42
SNIDIPD0 061218033852.19
ZAPOEPD2 061218033852.92
