SCRIIP-0 061113013552.51
BAVAEPU2 061113013550.25
ESPNIP+0 061113013552.46
ZAPOEPU2 061113013552.09
MAZEIPD0 061113013552.89
GARCEP 3 061113013552.26
HIGAEPU2 061113013549.93
SNIDIP-0 061113013552.98
