ALPIIPU0 060502214449.56
COLMEPD2 060502214444.99
COMAIPU0 060502214444.64
CUATIPD0 060502214447.24
ESPNIPU1 060502214445.39
HIGAEPU2 060502214450.07
JANUIPU0 060502214448.98
MORAIPU0 060502214446.38
PAVEEP-3 060502214449.24
SANMIPU0 060502214449.12
SCRIIPU0 060502214445.44
SNIDIP-0 060502214448.37
ZAPOIPU0 060502214446.60
