ALPIIPD0 060216034853.79
BAVAIPU0 060216034850.04
COLMIP-0 060216034850.84
COMAIPD0 060216034849.31       01.79SI 0
CUATIPD0 060216034851.03
ESPNIPD0 060216034850.98
GARCEP-2 060216034854.96
HIGAIPD0 060216034853.23
JANUIPU0 060216034855.07
MAZEIPD1 060216034851.41
MORAIPD0 060216034852.09
PERCEPD2 060216034854.89
SANMEPD2 060216034852.92
SCRIIPD0 060216034851.43
SINNEP+3 060216034852.09
