ALPIIP+1 060303050134.77
COLMEP+2 060303050135.18
ESPNIP 1 060303050133.72       40.37SI 0
GARCIPU0 060303050131.38       35.91SI 0
JANUEP-3 060303050129.74       33.29SI 0
PAVEIPU0 060303050131.93       36.93SI 0
SANMEP+3 060303050135.53
SINNIPU0 060303050133.76
