ALPIEPD2 061030115559.42
CANOEP 3 061030115600.50
COLMIP-0 061030115555.75
COMAIPD0 061030115555.35
CUATIPU0 061030115557.93
ESPNEP 3 061030115555.49
GARCIPU0 061030115557.84
HIGAEPD2 061030115600.05
MAZEEP+3 061030115555.46
MORAEPU2 061030115555.41
PAVEIPD0 061030115558.45
PERCIPU0 061030115559.79
SANMIPD0 061030115559.25
SCRIIPU0 061030115555.22
SINNIP+0 061030115600.03
SNIDEP+2 061030115555.76
ZAPOIPU0 061030115555.81
