BAVAEPU2 060731182532.03
COLMEP+2 060731182532.74
CUATIPU0 060731182533.49       46.80SI 0
ESPNIPU0 060731182533.40
GARCIPU0 060731182536.76
HIGAIPU0 060731182535.67
MAZEIPU0 060731182533.77
PAVEIPU0 060731182536.63       53.68SI 0
SANMIPU0 060731182535.00
SINNIPU0 060731182536.07
SNIDIPU0 060731182536.14
ZAPOIPU0 060731182535.07
