ALPIIP+0 060805004403.28
BAVAIPU0 060805004400.50       04.87SI 0
COLMIPU0 060805004400.22       04.42SI 0
COMAIP+0 060805004359.61       02.97SI 0
CUATIPU0 060805004400.91       05.96SI 0
ESPNIP+0 060805004400.79       05.16SI 0
GARCIPD0 060805004403.84       10.57SI 0
HIGAIP+0 060805004403.46
MAZEIP+0 060805004401.10       05.98SI 0
MORAIPD0 060805004401.75       06.71SI 0
PAVEIP-0 060805004404.21       11.01SI 0
OLOTIP-0 060805004405.53
SANMIPU0 060805004402.73       08.87SI 0
SCRIEP 2 060805004401.19       05.77SI 0
SINNEPU2 060805004402.94       09.15SI 0
SNIDIP+0 060805004403.33       09.71SI 0
ZAPOIPU0 060805004402.34       07.89SI 0
