COLMIPU0 060329041459.33
COMAIPU0 060329041459.54
ESPNIPU0 060329041459.17
JANUIPD0 060329041501.84
MAZEIPU0 060329041500.10
MORAIPU0 060329041459.76
SCRIIPU0 060329041459.18
SNIDIPU0 060329041500.90       05.34SI 0
ZAPOIP+1 060329041500.04
