ALPIEP 2 061230151118.77       25.89SI 0
BAVAIP+1 061230151117.71       23.97SI 0
COLMIP-0 061230151115.16       19.79SI 0
COMAIP-0 061230151115.52
ESPNIPD0 061230151114.78       18.93SI 0
GARCEP+2 061230151117.37       23.67SI 0
HIGAEP-2 061230151119.36       27.49SI 0
JANUIP-1 061230151116.80
MAZEEP 3 061230151116.13
PAVEEP-2 061230151118.10
SCRIIPD0 061230151118.53
