SNIDEP-2 070121135353.76       54.39SI 0
HIGAIPU0 070121135400.79
ZAPOEPU2 070121135354.46
SCRIIPU0 070121135356.11
SINNIPU0 070121135357.26       58.59SI 0
CUATEP+3 070121135357.34
ESPNEP+3 070121135354.73       37.78SI 0
