ALPIIPD0 071003174835.70
BAVAEP-3 071003174834.73
COLMIP+1 071003174837.86
CUATIPU0 071003174835.92
EBMGIPD1 071003174836.88
ESPNIPD0 071003174838.32
HIGAIPD0 071003174833.45
MAZEIPU0 071003174837.55
MORAEP+2 071003174838.09
PAVEIPD0 071003174841.48
SCRIIP+1 071003174838.55
SNIDIPD1 071003174839.18
