ALPIIPU0 071028130156.34
BAVAIPD0 071028130157.53       06.84SI 0
COLMIPU0 071028130154.53
EBMGEPD2 071028130155.14
ESPNIPU0 071028130153.45
MAZEIPU0 071028130154.96
MORAIPU0 071028130153.06
PAVEEP-3 071028130153.67
SCRIIPU0 071028130152.66
SINNIPU0 071028130155.02
SNIDIPD0 071028130151.39
ZAPOIPU0 071028130152.01
