ALPIIPD0 070806081703.57
BAVAIPD0 070806081659.72
CDGZEPD2 070806081706.34
COLMIPD1 070806081700.19
COMAIPD0 070806081659.08
CUATIPD0 070806081700.80
EBMGIPD0 070806081702.48
ESPNEPU2 070806081700.43
GARCEP-3 070806081704.13
HIGAIPD0 070806081703.00
JANUEPU2 070806081704.24
