ALPIEP+3 070202093602.21
COLMEP-2 070202093558.51
COMAEP-2 070202093554.07
GARCIPD0 070202093558.12       19.29SI 0
MORAIP-1 070202093558.67
SCRIIP+0 070202093557.70
SNIDIPU0 070202093558.31
ZAPOIPU0 070202093557.86
