SCRIIPU0 070121104215.42
MAZEEP+2 070121104216.34
BAVAIP+1 070121104216.71       23.48SI 0
MORAIPU1 070121104216.33
COMAEP-3 070121104214.69       19.94SI 0
PERCEP+3 070121104220.10
SNIDIP-0 070121104217.97       24.96SI 0
GARCIP+0 070121104219.02
ESPNIPU0 070121104215.38       21.17SI 0
SANMIPU0 070121104218.95
ZAPOIPU0 070121104216.55
PAVEEP-2 070121104219.19
EBMGIPU1 070121104217.80       24.75SI 0
ALPIIPU0 070121104219.36
HIGAIPU0 070121104219.83       28.70SI 0
