ALPIIPU0 070516091416.96
BAVAEPU2 070516091413.53
COLMEP-3 070516091416.34
COMAIPU0 070516091416.56
CUATEPU2 070516091414.82
ESPNEP+2 070516091418.33
GARCEP+2 070516091419.86
HIGAIPD0 070516091414.80
MAZEEPD2 070516091417.03
MORAEP+3 070516091335.55
PAVEEP-3 070516091419.42
SANMIPU0 070516091415.83
SCRIIPU1 070516091419.01
SINNIPU0 070516091418.13
ZAPOEPD2 070516091419.69
