ALPIEPD2 070523072643.43       00.84SI 0
BAVAIPU1 070523072640.31       54.87SI 0
COLMEP 2 070523072639.72
COMAIPD0 070523072638.53
CUATIPU0 070523072641.08
EBMGIP-1 070523072642.53
HIGAIPU0 070523072643.78
MAZEEPD2 070523072639.69
PAVEIPU0 070523072643.85
PERCIPU0 070523072644.45
SANMEP-3 070523072642.21
SCRIIPU0 070523072639.93
SNIDIPU0 070523072642.27
ZAPOEPD2 070523072640.08
