ALPIIPD0 070722225144.78
BAVAIPD0 070722225140.90
COLMIPD0 070722225141.37
COMAIPD0 070722225140.20
ESPNIPD0 070722225141.98
GARCIP+1 070722225145.85
HIGAEP+3 070722225144.10
JANUIPD0 070722225146.01       57.58SI 0
MORAIPD1 070722225143.08
PAVEIPD0 070722225145.77
SANMIPD0 070722225143.99
SCRIIP 0 070722225142.10
SNIDIP-1 070722225144.80
