ALPIIPU0 070410051650.84
ESPNEPU2 070410051645.83
GARCIP-0 070410051647.51
HIGAIP+0 070410051651.86       15.73SI 0
PAVEEPD2 070410051648.54
PERCEPU2 070410051650.67       13.27SI 0
SANMIPU0 070410051650.86       13.87SI 0
SCRIEPD2 070410051645.39
SINNEPD2 070410051648.95
SNIDIP+1 070410051645.89
