ALPIIPU0 070708061334.52
CDGZIPU0 070708061333.00       49.84SI 0
COMAEP-2 070708061336.17
CUATIPU1 070708061334.00
EBMGIPU0 070708061335.47
ESPNIP+1 070708061237.21
GARCEP+2 070708061338.14
HIGAEPD2 070708061331.72       42.98SI 0
JANUIPU1 070708061338.92       54.77SI 0
MAZEIPU0 070708061335.85       49.74SI 0
PAVEIP+1 070708061337.15
PERCEP-2 070708061335.92
SANMIPU0 070708061333.46
SCRIEP-3 070708061337.34       52.79SI 0
SINNIPU0 070708061336.10
SNIDIP-0 070708061338.54       54.17SI 0
