ALPIEP+3 071012033321.35
COLMIPU0 071012033323.93
EBMGEP-3 071012033322.56
ESPNIPD0 071012033323.97
MAZEIPD0 071012033323.47
SCRIEPD2 071012033324.41
SINNIPD0 071012033323.40
ZAPOIPU0 071012033324.95
