COLMIPD0 070803092417.82
COMAIPD0 070803092417.75
CUATIPD0 070803092419.99
EBMGIPD0 070803092420.32
ESPNIPU0 070803092417.30
GARCIPD0 070803092420.33       27.73SI 0
HIGAIP+1 070803092422.58       31.26SI 0
JANUIPD0 070803092420.21
MAZEIPU0 070803092418.79
PAVEIPD0 070803092421.13
PERCEPD2 070803092422.06
SANMEP-2 070803092421.56       29.88SI 0
SCRIIPD0 070803092417.48
ZAPOEPU2 070803092418.00
