BAVAIPU0 071217125505.69
COLMIP-1 071217125504.06
CUATEPU2 071217125505.18
EBMGEPU2 071217125505.69
ESPNIPD0 071217125503.27
GARCIP-0 071217125506.66
HIGAIPU0 071217125508.62       25.12SI 0
MAZEIP+0 071217125505.23
MORAIPU0 071217125504.27
