ALPIIPU0 070719034810.26
COLMIP+0 070719034807.34
ESPNIPU0 070719034806.44       16.66SI 0
HIGAEPU2 070719034811.72
PERCIPU0 070719034809.57
SCRIIPU0 070719034805.63       15.34SI 0
SINNIP+0 070719034808.93
SNIDIPU0 070719034805.62
ZAPOIPU0 070719034805.49
