ALPIIPU0 070705102101.74
BAVAEPU2 070705102058.20
COLMEP-3 070705102056.53
COMAEPD2 070705102056.05
CUATEP-3 070705102059.38
ESPNIPD0 070705102056.57
GARCIPU0 070705102100.53
HIGAEPD2 070705102101.74
PAVEEPD2 070705102100.07
PERCEPD2 070705102101.90
SANMIPU0 070705102101.34
