ALPIEP 3 070116054219.74       29.43SI 0
BAVAEP 3 070116054216.96       24.47SI 0
COLMEP-3 070116054215.57
COMAIP 1 070116054214.91       20.76SI 0
MAZEEP 3 070116054217.41
MORAEP 3 070116054218.66       25.98SI 0
PAVEEP 3 070116054220.85
PERCEP 3 070116054221.47
SANMEP 3 070116054219.78
SCRIEP-2 070116054215.65
ZAPOEP 3 070116054216.80
