JANUEPD2 070105172132.15
ALPIEP+3 070105172129.04
MAZEIPU0 070105172128.54
COLMEP 2 070105172128.95
SINNEPU2 070105172129.88
HIGAIPU0 070105172127.34       43.48SI 0
SANMEP+3 070105172127.89       44.91SI 0
ESPNIPU0 070105172129.07
MORAEPU2 070105172129.96
