ALPIIPU0 070731022205.32
BAVAEPD2 070731022205.36
COLMIPU0 070731022202.77
CUATEPD2 070731022204.94
EBMGIPU0 070731022204.32
ESPNIPU0 070731022201.81
HIGAEPD2 070731022220.23
JANUEPD2 070731022200.75
MORAEPD2 070731022201.50
PAVEIPU0 070731022202.99       13.87SI 0
PERCIPD1 070731022204.40
SANMEP-3 070731022205.50       18.69SI 0
SCRIIPU0 070731022201.05
SINNIPU0 070731022204.04
SNIDIPU1 070731022200.00
ZAPOEPD2 070731022200.51
