ALPIIPU0 071026054915.48
BAVAIPU0 071026054912.01
COLMEPD2 071026054913.26
EBMGIPU0 071026054915.36
ESPNEPU2 071026054914.46
HIGAEPU2 071026054913.15
MAZEIPU0 071026054914.81
PAVEIPU0 071026054917.71
SNIDEPU2 071026054917.15
