ALPIEP-2 070211200649.37
BAVAEPD2 070211200646.01
COLMEPU2 070211200646.18
COMAIP-1 070211200644.78       56.14SI 0
CUATIPU0 070211200647.13
ESPNIPU0 070211200646.79
GARCEP+2 070211200650.62
HIGAIPU0 070211200649.17
MAZEEP-2 070211200646.74
MORAIPD0 070211200647.44
PAVEIP-0 070211200650.16
SANMIPU0 070211200648.86
SCRIEP+2 070211200646.17
