BAVAIPU1 070629171719.34
EBMGEPD2 070629171720.09       37.87SI 0
HIGAIP-1 070629171718.05
JANUEP+3 070629171724.24
MAZEEPU2 070629171721.62
PAVEIPU0 070629171722.34
SCRIIP+1 070629171722.94
SINNIPU0 070629171721.73
