ALPIIPU0 071029131618.91
BAVAIPD0 071029131615.28
EBMGIPU0 071029131618.76
ESPNEPU2 071029131617.95
HIGAEPD2 071029131617.15
MAZEEP-3 071029131617.93
MORAEPD2 071029131619.24
SCRIEP+2 071029131618.59
SNIDEP-3 071029131620.98
ZAPOEPD2 071029131620.15
