BAVAIPD0 071217033236.59
CUATIP+1 071217033237.69       58.09SI 0
ESPNEP+2 071217033240.67
HIGAIP+1 071217033236.64
JANUEPU2 071217033242.18
MAZEIPU0 071217033239.25
PERCIPU0 071217033241.70
SCRIEPD2 071217033239.28
SINNIPU0 071217033240.41
