COLMIP-1 070222125144.39
CUATEPU2 070222125142.56
EBMGIPU0 070222125143.93
MAZEIPU0 070222125144.24
MORAIP-0 070222125144.28
SANMEPU2 070222125142.03
SCRIIPD0 070222125145.84
SINNIPU0 070222125144.44
ZAPOEP+3 070222125146.06
