ALPIEP-3 070615061906.69
BAVAIPD0 070615061903.01       16.64SI 0
COMAEP+3 070615061904.84
EBMGIPU0 070615061906.53
ESPNIPU0 070615061906.61
GARCIP-1 070615061909.29
HIGAIPU0 070615061904.69       19.81SI 0
MAZEIPU0 070615061906.04
SANMEP+2 070615061905.66
SCRIIPU0 070615061907.18       25.42SI 0
