BAVAEP+2 071101220025.70       32.93SI 0
COLMEPU2 071101220027.76
EBMGEP+2 071101220029.12       38.40SI 0
ESPNEP-3 071101220028.34
JANUIPU0 071101220032.39
SCRIIP+1 071101220029.08
SINNIPU1 071101220030.11
