Tiempo (seg): 63	 Magnitud: 2.50476682748
Tiempo (seg): 52	 Magnitud: 2.3489262526
Tiempo (seg): 26	 Magnitud: 1.78600016071
Tiempo (seg): 45	 Magnitud: 2.23150740076
Tiempo (seg): 56	 Magnitud: 2.4091116105
Tiempo (seg): 40	 Magnitud: 2.13585218378
Tiempo (seg): 196	 Magnitud: 3.42651885344
Tiempo (seg): 63	 Magnitud: 2.50476682748
Tiempo (seg): 67	 Magnitud: 2.55475988105
Tiempo (seg): 63	 Magnitud: 2.50476682748
Tiempo (seg): 52	 Magnitud: 2.3489262526
Tiempo (seg): 26	 Magnitud: 1.78600016071
Tiempo (seg): 45	 Magnitud: 2.23150740076
Tiempo (seg): 56	 Magnitud: 2.4091116105
Tiempo (seg): 40	 Magnitud: 2.13585218378
Tiempo (seg): 196	 Magnitud: 3.42651885344
Tiempo (seg): 63	 Magnitud: 2.50476682748
Tiempo (seg): 67	 Magnitud: 2.55475988105
