PAVEIPU0 070116055938.22
SANMEP-3 070116055938.80
SCRIIPU0 070116055934.70       34.99SI 0
MORAIPU0 070116055935.67       35.89SI 0
PAVEIPU0 070116055938.22
SANMEP-3 070116055938.80
SCRIIPU0 070116055934.70       34.99SI 0
MORAIPU0 070116055935.67       35.89SI 0
