ESPNIPU0 070113141047.16       46.90SI 0
GARCIPD0 070113141040.46       41.16SI 0
JANUEP-2 070113141155.87       43.47SI 0
MORAIP+1 070113141042.19
ESPNIPU0 070113141047.16       46.90SI 0
GARCIPD0 070113141040.46       41.16SI 0
JANUEP-2 070113141155.87       43.47SI 0
MORAIP+1 070113141042.19
